^C:\USERS\USER\DOCUMENTS\LKS0127\LKS0127\2019421\MAIN.CPP
C:\USERS\USER\DOCUMENTS\LKS0127\LKS0127\2019421\DEBUG\VC141.PDB
C:\USERS\USER\DOCUMENTS\LKS0127\LKS0127\2019421\DEBUG\VC141.IDB
C:\USERS\USER\DOCUMENTS\LKS0127\LKS0127\2019421\DEBUG\MAIN.OBJ
