^C:\USERS\ADMINISTRATOR\DOCUMENTS\VSPRACTICE\LKS0127\RPS\DEBUG\CHARACTER.OBJ|C:\USERS\ADMINISTRATOR\DOCUMENTS\VSPRACTICE\LKS0127\RPS\DEBUG\MAIN.OBJ|C:\USERS\ADMINISTRATOR\DOCUMENTS\VSPRACTICE\LKS0127\RPS\DEBUG\MONSTER.OBJ|C:\USERS\ADMINISTRATOR\DOCUMENTS\VSPRACTICE\LKS0127\RPS\DEBUG\PLAYER.OBJ|C:\USERS\ADMINISTRATOR\DOCUMENTS\VSPRACTICE\LKS0127\RPS\DEBUG\RPS.RES|C:\USERS\ADMINISTRATOR\DOCUMENTS\VSPRACTICE\LKS0127\RPS\DEBUG\SYSTEM.OBJ
C:\USERS\ADMINISTRATOR\DOCUMENTS\VSPRACTICE\LKS0127\DEBUG\RPS.EXE
C:\USERS\ADMINISTRATOR\DOCUMENTS\VSPRACTICE\LKS0127\DEBUG\RPS.ILK
C:\USERS\ADMINISTRATOR\DOCUMENTS\VSPRACTICE\LKS0127\DEBUG\RPS.PDB
