^C:\USERS\USER\DOCUMENTS\LKS0127\LKS0127\FILEPRACTICE\DEBUG\GUGUDAN.OBJ|C:\USERS\USER\DOCUMENTS\LKS0127\LKS0127\FILEPRACTICE\DEBUG\MAIN.OBJ
C:\USERS\USER\DOCUMENTS\LKS0127\LKS0127\DEBUG\FILEPRACTICE.EXE
C:\USERS\USER\DOCUMENTS\LKS0127\LKS0127\DEBUG\FILEPRACTICE.ILK
C:\USERS\USER\DOCUMENTS\LKS0127\LKS0127\DEBUG\FILEPRACTICE.PDB
