^C:\USERS\USER\DOCUMENTS\LKS0127\LKS0127\CALCULATOR\DEBUG\CALCULATOR.OBJ
C:\USERS\USER\DOCUMENTS\LKS0127\LKS0127\DEBUG\CALCULATOR.EXE
C:\USERS\USER\DOCUMENTS\LKS0127\LKS0127\DEBUG\CALCULATOR.ILK
C:\USERS\USER\DOCUMENTS\LKS0127\LKS0127\DEBUG\CALCULATOR.PDB
^C:\USERS\ADMINISTRATOR\DOCUMENTS\PRACTICE\LKS0127\CALCULATOR\DEBUG\CALCULATOR.OBJ
C:\USERS\ADMINISTRATOR\DOCUMENTS\PRACTICE\LKS0127\DEBUG\CALCULATOR.ILK
C:\USERS\ADMINISTRATOR\DOCUMENTS\PRACTICE\LKS0127\DEBUG\CALCULATOR.EXE
C:\USERS\ADMINISTRATOR\DOCUMENTS\PRACTICE\LKS0127\DEBUG\CALCULATOR.PDB
^C:\USERS\ADMINISTRATOR\DOCUMENTS\VSPRACTICE\LKS0127\CALCULATOR\DEBUG\CALCULATOR.OBJ
C:\USERS\ADMINISTRATOR\DOCUMENTS\VSPRACTICE\LKS0127\DEBUG\CALCULATOR.ILK
C:\USERS\ADMINISTRATOR\DOCUMENTS\VSPRACTICE\LKS0127\DEBUG\CALCULATOR.EXE
C:\USERS\ADMINISTRATOR\DOCUMENTS\VSPRACTICE\LKS0127\DEBUG\CALCULATOR.PDB
